   75.975109052500059        0.0000000000000000     
   75.970050541808035        4.0404042323129344E-005
   75.954871131526573        8.0808084646258687E-005
   75.929559197771823        1.2121212696938804E-004
   75.894095403164073        1.6161616929251737E-004
   75.848452750415191        2.0202021161564671E-004
   75.792596657246918        2.4242425393877608E-004
   75.726485052534784        2.8282829626190541E-004
   75.650068493542918        3.2323233858503475E-004
   75.563290304084219        3.6363638090816409E-004
   75.466086733410066        4.0404042323129342E-004
   75.358387135602158        4.4444446555442276E-004
   75.240114169208397        4.8484850787755215E-004
   75.111184017964533        5.2525255020068149E-004
   74.971506626067352        5.6565659252381083E-004
   74.820985961693168        6.0606063484694016E-004
   74.659520291654488        6.4646467717006950E-004
   74.487002474585736        6.8686871949319884E-004
   74.303320287249207        7.2727276181632817E-004
   74.108356737935139        7.6767680413945751E-004
   73.901990426400417        8.0808084646258685E-004
   73.684095905967894        8.4848488878571618E-004
   73.454544064240793        8.8888893110884552E-004
   73.213202519048210        9.2929297343197486E-004
   72.959936028960158        9.6969701575510430E-004
   72.694606917675543        1.0101010580782336E-003
   72.417075511551218        1.0505051004013630E-003
   72.127200589505591        1.0909091427244923E-003
   71.824839844495017        1.1313131850476217E-003
   71.509850355727181        1.1717172273707510E-003
   71.182089070741668        1.2121212696938803E-003
   70.841413296454448        1.2525253120170097E-003
   70.487681198230121        1.2929293543401390E-003
   70.120752306014438        1.3333333966632683E-003
   69.740488026528553        1.3737374389863977E-003
   69.346752160496493        1.4141414813095270E-003
   68.939411423849421        1.4545455236326563E-003
   68.518335971823191        1.4949495659557857E-003
   68.083399924840052        1.5353536082789150E-003
   67.634481895042484        1.5757576506020444E-003
   67.171465512324772        1.6161616929251737E-003
   66.694239944868713        1.6565657352483030E-003
   66.202700435659608        1.6969697775714324E-003
   65.696748797827553        1.7373738198945617E-003
   65.176293941133267        1.7777778622176910E-003
   64.641252374088666        1.8181819045408204E-003
   64.091548706074107        1.8585859468639497E-003
   63.527116119005100        1.8989899891870791E-003
   62.947896871946945        1.9393940315102086E-003
   62.353842750921586        1.9797980738333379E-003
   61.744915527732275        2.0202021161564673E-003
   61.121087400531842        2.0606061584795966E-003
   60.482341419269147        2.1010102008027260E-003
   59.828671894822051        2.1414142431258553E-003
   59.160084790646621        2.1818182854489846E-003
   58.476598095795268        2.2222223277721140E-003
   57.778242178184719        2.2626263700952433E-003
   57.065060117026157        2.3030304124183726E-003
   56.337108013364571        2.3434344547415020E-003
   55.594455277713969        2.3838384970646313E-003
   54.837184893817174        2.4242425393877606E-003
   54.065393657605661        2.4646465817108900E-003
   53.279192390484447        2.5050506240340193E-003
   52.478706126120919        2.5454546663571487E-003
   51.664074269972687        2.5858587086802780E-003
   50.835450730850368        2.6262627510034073E-003
   49.993004023874008        2.6666667933265367E-003
   49.136917344248332        2.7070708356496660E-003
   48.267388611350995        2.7474748779727953E-003
   47.384630482700146        2.7878789202959247E-003
   46.488870341357924        2.8282829626190540E-003
   45.580350232681361        2.8686870049421834E-003
   44.659326810421156        2.9090910472653127E-003
   43.726071210950899        2.9494950895884420E-003
   42.780868914640074        2.9898991319115714E-003
   41.824019584009520        3.0303031742347007E-003
   40.855836845819368        3.0707072165578300E-003
   39.876648068493253        3.1111112588809594E-003
   38.886794095549725        3.1515153012040887E-003
   37.886628951736270        3.1919193435272180E-003
   36.876519519536373        3.2323233858503474E-003
   35.856845186598129        3.2727274281734767E-003
   34.827997464716120        3.3131314704966061E-003
   33.790379581080863        3.3535355128197354E-003
   32.744406042591052        3.3939395551428647E-003
   31.690502174103301        3.4343435974659941E-003
   30.629103631571152        3.4747476397891234E-003
   29.560655891100026        3.5151516821122527E-003
   28.485613715017355        3.5555557244353821E-003
   27.404440596125934        3.5959597667585114E-003
   26.317608181375238        3.6363638090816408E-003
   25.225595676248034        3.6767678514047701E-003
   24.128889231218324        3.7171718937278994E-003
   23.027981311692240        3.7575759360510288E-003
   21.923370052894185        3.7979799783741581E-003
   20.815558601206941        3.8383840206972874E-003
   19.705054443517056        3.8787880630204172E-003
   18.592368726153527        3.9191921053435465E-003
   17.478015565040380        3.9595961476666759E-003
   16.362511347973285        4.0000001899898052E-003
