   39.038515913223748        0.0000000000000000     
   39.038483065602513        4.0404042323129344E-005
   39.038384522828601        8.0808084646258687E-005
   39.038220285171299        1.2121212696938804E-004
   39.037990353079465        1.6161616929251737E-004
   39.037694727181488        2.0202021161564671E-004
   39.037333408285285        2.4242425393877608E-004
   39.036906397378310        2.8282829626190541E-004
   39.036413695627544        3.2323233858503475E-004
   39.035855304379503        3.6363638090816409E-004
   39.035231225160224        4.0404042323129342E-004
   39.034541459675260        4.4444446555442276E-004
   39.033786009809695        4.8484850787755215E-004
   39.032964877628082        5.2525255020068149E-004
   39.032078065374535        5.6565659252381083E-004
   39.031125575472622        6.0606063484694016E-004
   39.030107410525424        6.4646467717006950E-004
   39.029023573315506        6.8686871949319884E-004
   39.027874066804884        7.2727276181632817E-004
   39.026658894135075        7.6767680413945751E-004
   39.025378058627041        8.0808084646258685E-004
   39.024031563781207        8.4848488878571618E-004
   39.022619413277418        8.8888893110884552E-004
   39.021141610974972        9.2929297343197486E-004
   39.019598160912572        9.6969701575510430E-004
   39.017989067308342        1.0101010580782336E-003
   39.016314334559787        1.0505051004013630E-003
   39.014573967243827        1.0909091427244923E-003
   39.012767970116734        1.1313131850476217E-003
   39.010896348114144        1.1717172273707510E-003
   39.008959106351043        1.2121212696938803E-003
   39.006956250121753        1.2525253120170097E-003
   39.004887784899907        1.2929293543401390E-003
   39.002753716338454        1.3333333966632683E-003
   39.000554050269614        1.3737374389863977E-003
   38.998288792704898        1.4141414813095270E-003
   38.995957949835052        1.4545455236326563E-003
   38.993561528030085        1.4949495659557857E-003
   38.991099533839211        1.5353536082789150E-003
   38.988571973990865        1.5757576506020444E-003
   38.985978855392638        1.6161616929251737E-003
   38.983320185131312        1.6565657352483030E-003
   38.980595970472820        1.6969697775714324E-003
   38.977806218862192        1.7373738198945617E-003
   38.974950937923602        1.7777778622176910E-003
   38.972030135460280        1.8181819045408204E-003
   38.969043819454541        1.8585859468639497E-003
   38.965991998067729        1.8989899891870791E-003
   38.962874679640223        1.9393940315102086E-003
   38.959691872691387        1.9797980738333379E-003
   38.956443585919565        2.0202021161564673E-003
   38.953129828202051        2.0606061584795966E-003
   38.949750608595075        2.1010102008027260E-003
   38.946305936333744        2.1414142431258553E-003
   38.942795820832067        2.1818182854489846E-003
   38.939220271682899        2.2222223277721140E-003
   38.935579298657913        2.2626263700952433E-003
   38.931872911707572        2.3030304124183726E-003
   38.928101120961131        2.3434344547415020E-003
   38.924263936726568        2.3838384970646313E-003
   38.920361369490593        2.4242425393877606E-003
   38.916393429918593        2.4646465817108900E-003
   38.912360128854608        2.5050506240340193E-003
   38.908261477321318        2.5454546663571487E-003
   38.904097486519987        2.5858587086802780E-003
   38.899868167830455        2.6262627510034073E-003
   38.895573532811085        2.6666667933265367E-003
   38.891213593198763        2.7070708356496660E-003
   38.886788360908838        2.7474748779727953E-003
   38.882297848035094        2.7878789202959247E-003
   38.877742066849727        2.8282829626190540E-003
   38.873121029803301        2.8686870049421834E-003
   38.868434749524724        2.9090910472653127E-003
   38.863683238821203        2.9494950895884420E-003
   38.858866510678226        2.9898991319115714E-003
   38.853984578259492        3.0303031742347007E-003
   38.849037454906920        3.0707072165578300E-003
   38.844025154140589        3.1111112588809594E-003
   38.838947689658681        3.1515153012040887E-003
   38.833805075337487        3.1919193435272180E-003
   38.828597325231335        3.2323233858503474E-003
   38.823324453572582        3.2727274281734767E-003
   38.817986474771530        3.3131314704966061E-003
   38.812583403416426        3.3535355128197354E-003
   38.807115254273405        3.3939395551428647E-003
   38.801582042286476        3.4343435974659941E-003
   38.795983782577430        3.4747476397891234E-003
   38.790320490445843        3.5151516821122527E-003
   38.784592181369014        3.5555557244353821E-003
   38.778798871001932        3.5959597667585114E-003
   38.772940575177223        3.6363638090816408E-003
   38.767017309905128        3.6767678514047701E-003
   38.761029091373423        3.7171718937278994E-003
   38.754975935947400        3.7575759360510288E-003
   38.748857860169835        3.7979799783741581E-003
   38.742674880760916        3.8383840206972874E-003
   38.736427014618201        3.8787880630204172E-003
   38.730114278816579        3.9191921053435465E-003
   38.723736690608227        3.9595961476666759E-003
   38.717294267422560        4.0000001899898052E-003
