          11   1.1818702718508989E-002   2.8398921268127292E-002
          12   7.2044002777806038E-003   2.5851640847720181E-002
          13   3.9591663630533236E-003   2.3910804088188603E-002
          14   5.1521070454352280E-003   2.1918093581912823E-002
          15   2.9123438631276366E-003   2.0507882709014436E-002
          16   3.8668917415177750E-003   1.9145097251757281E-002
          17   2.2315177286829080E-003   1.7951967558867465E-002
          18   3.0090123909080890E-003   1.6802528084204765E-002
          19   1.7641090562699469E-003   1.5962081985423898E-002
          20   2.4079920691784662E-003   1.5123768103966484E-002
          21   2.9199469607374684E-003   1.4298904694148712E-002
          22   1.9706267883658479E-003   1.3686060439980108E-002
          23   2.4114821718921875E-003   1.3006743852889135E-002
          24   1.6424599770012982E-003   1.2497853846229701E-002
          25   9.9312981985313908E-004   1.1977870081989722E-002
          26   1.3899409157122067E-003   1.1454027009973194E-002
          27   1.7248967130786552E-003   1.1015667506572902E-002
          28   1.1914825428820941E-003   1.0648649321882170E-002
          29   7.2982098756441127E-004   1.0268777799054385E-002
          30   1.0326838859343601E-003   9.9150683060393319E-003
          31   1.2947801352691524E-003   9.5849088368476498E-003
          32   9.0363909229737582E-004   9.2760238042429166E-003
          33   5.5883579912890946E-004   8.9864215812117398E-003
          34   7.9735286777402048E-004   8.6880397569011336E-003
          35   4.9503888187582556E-004   8.4334591982105633E-003
          36   7.0877133635000034E-004   8.2168045431799119E-003
          37   4.4156905092757048E-004   7.9887420943810794E-003
          38   6.3416954437811590E-004   7.7519952030941641E-003
          39   3.9631226738356951E-004   7.5685949359030058E-003
          40   5.7075312392484978E-004   7.3746671055081869E-003
          41   7.2766298312887390E-004   7.1724217853608718E-003
          42   5.1639261222935495E-004   6.9980197077459394E-003
          43   3.2441070214997425E-004   6.8482489950863479E-003
          44   4.6944223977607447E-004   6.6890873560183917E-003
          45   6.0123602758663242E-004   6.5222399233557937E-003
          46   4.2861382807674042E-004   6.3777040421397480E-003
          47   5.5003582988100153E-004   6.2530952044048960E-003
          48   3.9288744091892092E-004   6.1201251480436092E-003
          49   2.4835311022466944E-004   5.9926921053128357E-003
          50   3.6144704154039697E-004   5.8704573119159331E-003
          51   4.6546610182238157E-004   5.7415268386946661E-003
          52   3.3363346189191345E-004   5.6292232852099833E-003
          53   4.3031397510479019E-004   5.5212286655017540E-003
          54   3.0890955636433959E-004   5.4276195428075158E-003
          55   1.9620039726472860E-004   5.3271556365758199E-003
          56   2.8683406419008350E-004   5.2303431289894842E-003
          57   1.8242550177688388E-004   5.1369865199906162E-003
          58   2.6704178239170262E-004   5.0469040202247017E-003
          59   1.7005049731544375E-004   4.9599263698824614E-003
          60   2.4922835480972738E-004   4.8675521416972345E-003
          61   3.2311708184676324E-004   4.7946649654725948E-003
          62   2.3313850398393177E-004   4.7082865009092090E-003
          63   3.0258602837510140E-004   4.6400610521537544E-003
          64   2.1855682760393846E-004   4.5664386181273886E-003
          65   1.3963046828449621E-004   4.4951159565278509E-003
          66   2.0530055308370931E-004   4.4191018892840161E-003
          67   1.3128578554288950E-004   4.3522724243989230E-003
          68   1.9321377937800421E-004   4.2939173057155444E-003
          69   1.2366637235861067E-004   4.2244994751282627E-003
          70   1.8216287173217216E-004   4.1633856935990310E-003
          71   1.1669055462323885E-004   4.1099580422822579E-003
          72   1.7203275408214647E-004   4.0520917117693178E-003
          73   1.1028784189928698E-004   3.9958322292259485E-003
          74   1.6272389737664872E-004   3.9411135848326229E-003
          75   2.1232202350260354E-004   3.8825512958175490E-003
          76   1.5414986399897579E-004   3.8308703786489318E-003
          77   9.8965262188027703E-005   3.7855946743761415E-003
          78   1.4623529982074612E-004   3.7315291896213298E-003
          79   9.3945785135884918E-005   3.6885594569580626E-003
          80   1.3891426523124362E-004   3.6418837330193243E-003
          81   1.8163196615472721E-004   3.5918163242986134E-003
          82   1.3212886316688044E-004   3.5519887360444535E-003
          83   1.7286835827479141E-004   3.5043452903979477E-003
          84   1.2582808729277861E-004   3.4621882378720881E-003
          85   8.0978415518406788E-005   3.4251703375308973E-003
          86   1.1996686021889524E-004   3.3848863016455455E-003
          87   1.5714027899582650E-004   3.3455388520448603E-003
          88   1.1450522818690079E-004   3.3032376472301173E-003
          89   1.5006840716297321E-004   3.2657546776410640E-003
          90   1.0940767591738343E-004   3.2328004083305162E-003
          91   1.4346285986699403E-004   3.1932842053612465E-003
          92   1.0464254544592655E-004   3.1582419318683386E-003
          93   1.3728351413289097E-004   3.1274126519229561E-003
          94   1.0018154718771655E-004   3.0904152052733114E-003
          95   6.4627048388998798E-005   3.0608904053568420E-003
          96   9.5999344744662762E-005   3.0286793856469929E-003
          97   6.1954389403207077E-005   2.9971392729358781E-003
          98   9.2073175465168244E-005   2.9662493227722853E-003
          99   5.9443669596814797E-005   2.9359896371731753E-003
         100   8.8382563670580394E-005   2.9033575868815109E-003
